{
  "zones": ["FR-ARA", "FR-BFC", "FR-BRE", "FR-CVL", "FR-COR", "FR-GES", "FR-HDF", "FR-IDF", "FR-NOR", "FR-NAQ", "FR-OCC", "FR-PDL", "FR-PAC"],
  "population_size": [8026685, 2795301, 3329395, 2566759, 339178, 5518188, 5978266, 12213364, 3319067, 5987014, 5892817, 3786545, 5059473],
  "compartmental_model": "Alizon20",
  "compartments": ["S", "E1", "E2", "A1", "A2", "I1", "I2", "R1", "R2", "M"],
  "_comment_initial_ratios": "dictionary key='zone code' and value = [S, E1, E2, A1, A2, I1, I2, R1, R2, M]",
  "initial_ratios": {
    "FR-ARA": [0.9967520209705903, 2.905854560596936e-06, 3.228727289099715e-07, 7.798491657432273e-06, 8.66499072990144e-07, 0.00014162055075409507, 1.6431142042823547e-05, 0.002770856229495769, 0.0002611007807329969, 4.6076608363716246e-05],
    "FR-BFC": [0.9807615886575154, 0.0009935263500239443, 0.0001103918166701076, 0.002091742143673845, 0.00023241579374311456, 0.006157002093575612, 0.0006900549635215819, 0.008072299620943588, 0.0007573317762835422, 0.00013364678404936164],
    "FR-BRE": [0.9970317907331805, 1.2228962007813014e-05, 1.3587735564236683e-06, 3.4887937876059224e-05, 3.876437541785656e-06, 0.0008051504833587604, 9.126004996044475e-05, 0.001819120956894548, 0.00017027681578083445, 3.004884984284302e-05],
    "FR-CVL": [0.9968987010426674, 7.407283118226494e-06, 8.230314575807179e-07, 2.0439741037654855e-05, 2.27108233751719e-06, 0.0004625082224335536, 5.2934768953695306e-05, 0.0023008138150094103, 0.00021598586103781787, 3.811515194701657e-05],
    "FR-COR": [0.992145097777316, 0.0002732622350261803, 3.0362470558917225e-05, 0.0005730463521329504, 6.367181690484879e-05, 0.0016688951383944943, 0.0001870277718436176, 0.0045542082748545034, 0.0004287639385239351, 7.566422444465954e-05],
    "FR-GES": [0.9174907005984398, 0.004662923252524351, 0.0005181025836186694, 0.010025787729420334, 0.0011139764143873515, 0.030982190342593936, 0.0034733613931111616, 0.02858746813682375, 0.0026736661167193537, 0.0004718234323615326],
    "FR-HDF": [0.9960523106088819, 2.059614976912092e-05, 2.288461085457912e-06, 4.342806005048158e-05, 4.825340005609e-06, 0.000120244305896537, 1.3476152296174183e-05, 0.00336865193629152, 0.00031805213786540966, 5.612684785781671e-05],
    "FR-IDF": [0.9656280098050194, 0.0019225412874744057, 0.00021361569860838496, 0.0040679633646181395, 0.0004519959294019689, 0.012113271995735449, 0.0013577077268451425, 0.01283101452763412, 0.0012017977149641383, 0.00021208194969888196],
    "FR-NOR": [0.9969835143688481, 1.0441896998590025e-05, 1.1602107776211133e-06, 2.9155540344957822e-05, 3.2395044827733542e-06, 0.0006784762997524693, 7.715178343460356e-05, 0.0019967633309403857, 0.00018708250475820204, 3.301455966237847e-05],
    "FR-NAQ": [0.997058946975539, 1.3246012366216705e-05, 1.4717791518018572e-06, 3.885241936442059e-05, 4.316935484938517e-06, 0.0008765816251179783, 9.918842303353327e-05, 0.001718267665165905, 0.00016075894006048445, 2.836922471572242e-05],
    "FR-OCC": [0.9970067035311225, 1.1296530723441004e-05, 1.2551700803823335e-06, 3.177326003312962e-05, 3.530362225903872e-06, 0.0007391556497929486, 8.391789760978999e-05, 0.0019117413814397671, 0.00017903228442694676, 3.159393254509814e-05],
    "FR-PDL": [0.9969725768574657, 1.0041619237323647e-05, 1.1157354708137379e-06, 2.7972927219287718e-05, 3.1081030243654785e-06, 0.0006500298781687227, 7.397461131913704e-05, 0.0020366364036553046, 0.0001908622847742927, 3.3681579665218e-05],
    "FR-PAC": [0.9969519334051389, 9.291941312481825e-06, 1.0324379236090909e-06, 2.580900310168466e-05, 2.8676670112983834e-06, 0.0005967264627251103, 6.80115571443201e-05, 0.002111432528235349, 0.0001979607477968835, 3.4934249610381085e-05]
  },
  "compartmental_model_parameters": {
    "epsilon": 1.0,
    "sigma": 0.4,
    "R0": 2.5,
    "gamm1": 0.06,
    "gamm2": 0.05,
    "CFR": 0.15,
    "nu": 1e-06,
    "mild": 0.9,
    "bb": 0.2,
    "mort_sup": 1e-05,
    "vir_sup": 0.01,
    "c": [0.0],
    "i_sat": 0.2,
    "time_interval": [0, 730]
  },
  "measure_weeks": [1, 5],
  "forced_telecommuting": [{
      "activated": [true, false, false, true, false, false, true, false, false, true, false, false, true]
    },
    {
      "activated": [false, false, false, false, false, false, false, false, false, false, false, false, false]
    }
  ],
  "social_containment_all": [{
      "activated": [true, false, false, true, false, false, true, false, false, true, false, false, true]
    },
    {
      "activated": [false, false, false, false, false, false, false, false, false, false, false, false, false]
    }
  ],
  "school_closures": [{
      "activated": [true, false, false, true, false, false, true, false, false, true, false, false, true]
    },
    {
      "activated": [false, false, false, false, false, false, false, false, false, false, false, false, false]
    }
  ],
  "total_containment_high_risk": [{
      "activated": [true, false, false, true, false, false, true, false, false, true, false, false, true]
    },
    {
      "activated": [false, false, false, false, false, false, false, false, false, false, false, false, false]
    }
  ]
}
