branches,ecoles,confinement,teletravail,part
agriculture,-5.7,-2.9,-4.6,0.04
industrie,-4.4,-25.3,-3.5,0.12
construction,-1.3,-46.8,-2.6,0.06
tertiaire marchand,-3.6,-29.9,-5.2,0.56
autre tertiaire,-3.4,-1.9,-4.6,0.22